/*
Adept MobileRobots Robotics Interface for Applications (ARIA)
Copyright (C) 2004-2005 ActivMedia Robotics LLC
Copyright (C) 2006-2010 MobileRobots Inc.
Copyright (C) 2011-2015 Adept Technology, Inc.
Copyright (C) 2016 Omron Adept Technologies, Inc.

     This program is free software; you can redistribute it and/or modify
     it under the terms of the GNU General Public License as published by
     the Free Software Foundation; either version 2 of the License, or
     (at your option) any later version.

     This program is distributed in the hope that it will be useful,
     but WITHOUT ANY WARRANTY; without even the implied warranty of
     MERCHANTABILITY or FITNESS FOR A PARTICULAR PURPOSE.  See the
     GNU General Public License for more details.

     You should have received a copy of the GNU General Public License
     along with this program; if not, write to the Free Software
     Foundation, Inc., 59 Temple Place, Suite 330, Boston, MA  02111-1307  USA

If you wish to redistribute ARIA under different terms, contact 
Adept MobileRobots for information about a commercial version of ARIA at 
robots@mobilerobots.com or 
Adept MobileRobots, 10 Columbia Drive, Amherst, NH 03031; +1-603-881-7960
*/
/* -----------------------------------------------------------------------------
 * See the LICENSE file for information on copyright, usage and redistribution
 * of SWIG, and the README file for authors - http://www.swig.org/release.html.
 *
 * std_list.i
 * ----------------------------------------------------------------------------- */

%include <std_common.i>

%{
#include <list>
#include <stdexcept>
%}

namespace std {
    
    template<class T> class list {
      public:
        typedef size_t size_type;
        typedef T value_type;
        typedef const value_type& const_reference;
        list();
        size_type size() const;
        %rename(isEmpty) empty;
        bool empty() const;
        void clear();
        %rename(add) push_back;
        void push_back(const value_type& x);
        %extend {
            const_reference get(int i) throw (std::out_of_range) {
                int size = int(self->size());
                int j;
                if (i>=0 && i<size) {
                    std::list<T>::const_iterator p;  
                    p=self->begin(); 
                    for (j=0; j<i; j++) {p++;}
                    return (*p);   
                }
                else
                    throw std::out_of_range("list index out of range");
            }
        }
   };
}

%define specialize_std_list(T)
#warning "specialize_std_list - specialization for type T no longer needed"
%enddef

